RF Model Playoff Series Prediction
…
# -----------------------------
# View Results
# -----------------------------
collect_metrics(rf_res)

# A tibble: 70 × 8
    mtry min_n .metric  .estimator  mean     n std_err .config         
   <dbl> <dbl> <chr>    <chr>      <dbl> <int>   <dbl> <chr>           
 1     2     2 accuracy binary     0.7       5 0.0105  pre0_mod01_post0
 2     2     2 roc_auc  binary     0.793     5 0.0185  pre0_mod01_post0
 3     2     5 accuracy binary     0.707     5 0.00667 pre0_mod02_post0
 4     2     5 roc_auc  binary     0.801     5 0.0156  pre0_mod02_post0
 5     2    10 accuracy binary     0.733     5 0.0149  pre0_mod03_post0
 6     2    10 roc_auc  binary     0.801     5 0.0177  pre0_mod03_post0
 7     2    15 accuracy binary     0.72      5 0.0133  pre0_mod04_post0
 8     2    15 roc_auc  binary     0.8       5 0.0174  pre0_mod04_post0
 9     2    20 accuracy binary     0.727     5 0.0125  pre0_mod05_post0
10     2    20 roc_auc  binary     0.808     5 0.0204  pre0_mod05_post0
# ℹ 60 more rows
…
